[
  {
    "id": "1",
    "name": "Dashboard",
    "icon": "icon-outline-dashboard",
    "path": "/customer/dashboard",
    "inner": []
  },
  {
    "id": "2",
    "name": "Shipping",
    "icon": "icon-outline-local_shipping",
    "path": "/customer/shipping/quick-quote",
    "inner": [
      {
        "id": "2_1",
        "name": "Quick Quote",
        "path": "/customer/shipping/quick-quote"
      },
      {
        "id": "2_2",
        "name": "Ship",
        "path": "/customer/shipping/ship/details"
      },
      {
        "id": "2_3",
        "name": "Batch",
        "path": "/customer/shipping/batch-shipping"
      },
      {
        "id": "2_4",
        "name": "Specialty Requests",
        "path": "/customer/shipping/specialty-requests"
      },
      {
        "id": "2_5",
        "name": "Pending Rates",
        "path": "/customer/shipping/pending-rates"
      },
      {
        "id": "2_6",
        "name": "Saved Quotes",
        "path": "/customer/shipping/saved-quotes"
      }
    ]
  },
  {
    "id": "3",
    "name": "Tracking",
    "icon": "icon-outline-explore",
    "path": "/customer/tracking",
    "inner": []
  },
  {
    "id": "4",
    "name": "eCommerce",
    "icon": "icon-outline-store",
    "path": "/customer/ecommerce/reports",
    "inner": [
      {
        "id": "4_1",
        "name": "Reports",
        "path": "/customer/ecommerce/reports"
      },
      {
        "id": "4_2",
        "name": "Orders",
        "path": "/customer/ecommerce/orders"
      },
      {
        "id": "4_3",
        "name": "Products",
        "path": "/customer/ecommerce/products"
      },
      {
        "id": "4_4",
        "name": "Automation Rules",
        "path": "/customer/ecommerce/automation-rules"
      },
      {
        "id": "4_5",
        "name": "Settings",
        "path": "/customer/ecommerce/settings"
      }
    ]
  },
  {
    "id": "5",
    "name": "Account",
    "icon": "icon-outline-account_box",
    "path": "/customer/account/roles",
    "inner": [
      {
        "id": "5_1",
        "name": "Roles",
        "path": "/customer/account/roles"
      },
      {
        "id": "5_2",
        "name": "Users",
        "path": "/customer/account/users"
      },
      {
        "id": "5_3",
        "name": "Address Book",
        "path": "/customer/account/address-book"
      },
      {
        "id": "5_4",
        "name": "Invoices",
        "path": "/customer/account/invoices"
      },
      {
        "id": "5_5",
        "name": "Box Manager",
        "path": "/customer/account/box-manager"
      },
      {
        "id": "5_3",
        "name": "Products List",
        "path": "/customer/account/products-list"
      },
      {
        "id": "5_6",
        "name": "Carriers",
        "path": "/customer/account/carriers"
      }
    ]
  },
  {
    "id": "6",
    "name": "Support",
    "icon": "icon-outline-build",
    "path": "/customer/support/supplies",
    "inner": [
      {
        "id": "6_1",
        "name": "Supplies",
        "path": "/customer/support/supplies"
      },
      {
        "id": "6_2",
        "name": "Tickets",
        "path": "/customer/support/tickets"
      }
    ]
  },
  {
    "id": "7",
    "name": "Log Out",
    "icon": "icon-power_settings_new",
    "path": "/",
    "inner": []
  }
]
